…
The data set `instacart` has 1384617 rows and 15 columns. The data set
lists items ordered by customers in a long format, with each item
getting its own row. Key variables include order_number, aisle_id,
department_id, and variables related to the time of the order.

There are 134 aisles. To find which aisles the most items are from, I
will build a list of the aisles in order of most items to fewest items.

``` r
instacart %>% 
  count(aisle) %>% 
  arrange(desc(n))
```

    ## # A tibble: 134 × 2
    ##    aisle                              n
    ##    <chr>                          <int>
    ##  1 fresh vegetables              150609
    ##  2 fresh fruits                  150473
    ##  3 packaged vegetables fruits     78493
    ##  4 yogurt                         55240
    ##  5 packaged cheese                41699
    ##  6 water seltzer sparkling water  36617
    ##  7 milk                           32644
    ##  8 chips pretzels                 31269
    ##  9 soy lactosefree                26240
    ## 10 bread                          23635
    ## # … with 124 more rows
…
